<?xml version="1.0" encoding="UTF-8" standalone="no"?>
<svg
   xmlns:dc="http://purl.org/dc/elements/1.1/"
   xmlns:cc="http://creativecommons.org/ns#"
   xmlns:rdf="http://www.w3.org/1999/02/22-rdf-syntax-ns#"
   xmlns:svg="http://www.w3.org/2000/svg"
   xmlns="http://www.w3.org/2000/svg"
   viewBox="0 0 411.21066 137.95332"
   height="137.95332"
   width="411.21066"
   xml:space="preserve"
   id="svg2"
   version="1.1"><metadata
     id="metadata8"><rdf:RDF><cc:Work
         rdf:about=""><dc:format>image/svg+xml</dc:format><dc:type
           rdf:resource="http://purl.org/dc/dcmitype/StillImage" /></cc:Work></rdf:RDF></metadata><defs
     id="defs6"><clipPath
       id="clipPath18"
       clipPathUnits="userSpaceOnUse"><path
         id="path16"
         d="M 0,103.465 H 308.408 V 0 H 0 Z" /></clipPath></defs><g
     transform="matrix(1.3333333,0,0,-1.3333333,0,137.95333)"
     id="g10"><g
       id="g12"><g
         clip-path="url(#clipPath18)"
         id="g14"><g
           transform="translate(75.6182,54.9072)"
           id="g20"><path
             id="path22"
             style="fill:#298b90;fill-opacity:1;fill-rule:nonzero;stroke:none"
             d="m 0,0 c 0,0 1.185,13.379 1.297,14.691 0.182,2.106 -1.514,5.938 -5.603,5.938 h -12.069 v -0.006 h -7.264 -1.154 -13.286 c -4.089,0 -6.075,-2.775 -6.331,-5.426 -0.153,-1.572 -2.944,-33.918 -3.123,-35.783 -0.29,-2.996 1.781,-6.393 5.543,-6.393 h 14.187 v 0.002 h 5.922 v -0.002 h 13.467 c 4.457,0 6.187,2.36 6.567,5.997 0.227,2.175 1.329,15.345 1.329,15.345 h -20.295 l -0.877,-10.176 h -5.138 l 2.213,25.272 h 5.135 L -20.295,0 Z" /></g><g
           transform="translate(106.9424,71.4482)"
           id="g24"><path
             id="path26"
             style="fill:#298b90;fill-opacity:1;fill-rule:nonzero;stroke:none"
             d="M 0,0 C -0.724,-2.084 -6.63,-20.574 -6.63,-20.574 L -4.004,4.082 -24.29,4.084 -28.541,-43.52 h 15.289 c 3.842,0 5.153,2.18 5.793,3.924 0.764,2.086 6.395,17.639 6.395,17.639 L -3.136,-43.52 H 17.166 L 21.35,4.084 C 21.35,4.084 6.8,4.082 5.416,4.082 1.9,4.082 0.514,1.48 0,0" /></g><g
           transform="translate(209.7568,75.5303)"
           id="g28"><path
             id="path30"
             style="fill:#298b90;fill-opacity:1;fill-rule:nonzero;stroke:none"
             d="M 0,0 -1.898,-21.709 H -7.045 L -5.145,0 h -20.296 c 0,0 -1.947,-22.982 -2.153,-25.201 -0.245,-2.651 1.254,-6.408 5.751,-6.408 h 19.077 l -0.422,-4.829 h -25.389 l -0.978,-11.164 h 26.187 1.154 13.05 c 2.733,0 5.378,1.788 5.737,5.604 C 16.805,-39.547 20.297,0 20.297,0 Z" /></g><g
           transform="translate(253.4482,52.5557)"
           id="g32"><path
             id="path34"
             style="fill:#298b90;fill-opacity:1;fill-rule:nonzero;stroke:none"
             d="M 0,0 1.033,11.809 H 6.117 L 5.084,0 Z m 9.276,22.973 v 0 H 2.011 v 0.002 h -20.297 l -4.164,-47.602 h 20.296 l 1.289,14.729 H 6.4 L 5.05,-9.9 h 13.801 c 3.487,0 5.804,1.779 6.178,5.863 0.147,1.582 1.75,19.625 1.858,21.221 0.243,3.517 -2.558,5.789 -6.033,5.789 z" /></g><g
           transform="translate(155.6416,37.8311)"
           id="g36"><path
             id="path38"
             style="fill:#298b90;fill-opacity:1;fill-rule:nonzero;stroke:none"
             d="m 0,0 h -5.179 l 1.033,11.809 h 5.179 z m -3.28,21.709 0.424,4.828 h 25.422 l 0.976,11.164 H -1.882 -3.035 -22.179 L -26.343,-9.9 h 7.623 v -0.002 c 0,0 30.427,0.002 32.882,0.002 2.572,0 5.362,1.525 5.726,5.505 0.272,2.987 1.522,17.141 1.751,19.708 0.302,3.431 -1.877,6.396 -6.15,6.396 z" /></g></g></g></g></svg>