<svg width="17" height="17" viewBox="0 0 17 17" fill="none" xmlns="http://www.w3.org/2000/svg">
<path d="M11.3327 0.708374H2.83268C2.05352 0.708374 1.41602 1.34587 1.41602 2.12504V12.0417H2.83268V2.12504H11.3327V0.708374ZM10.6243 3.54171L14.8743 7.79171V14.875C14.8743 15.6542 14.2368 16.2917 13.4577 16.2917H5.65893C4.87977 16.2917 4.24935 15.6542 4.24935 14.875L4.25643 4.95837C4.25643 4.17921 4.88685 3.54171 5.66602 3.54171H10.6243ZM9.91602 8.50004H13.8118L9.91602 4.60421V8.50004Z" fill="#A6A6A6"/>
</svg>
