<svg width="23" height="22" viewBox="0 0 23 22" fill="none" xmlns="http://www.w3.org/2000/svg">
<path fill-rule="evenodd" clip-rule="evenodd" d="M9.95647 12.9577V22H12.9565V12.9577L22.7857 12.9577V9.95772L12.9565 9.95772V0H9.95647V9.95772L0 9.95772V12.9577L9.95647 12.9577Z" fill="#FFFFFF"/>
</svg>
