<svg width="44" height="44" viewBox="0 0 44 44" fill="none" xmlns="http://www.w3.org/2000/svg">
<path d="M17 18H16C14.8954 18 14 18.8954 14 20V31C14 32.1046 14.8954 33 16 33H28C29.1046 33 30 32.1046 30 31V20C30 18.8954 29.1046 18 28 18H27" stroke="#202949" stroke-linecap="round"/>
<path d="M26 13L22 9L18 13" stroke="#202949" stroke-linecap="round" stroke-linejoin="round"/>
<path d="M22 26V9" stroke="#202949" stroke-linecap="round" stroke-linejoin="round"/>
</svg>
