<svg width="21" height="17" viewBox="0 0 21 17" fill="none" xmlns="http://www.w3.org/2000/svg">
<path d="M6.64544 16.6742C14.5477 16.6742 18.8692 10.2886 18.8692 4.75124C18.8692 4.56986 18.8654 4.38931 18.8571 4.20958C19.6959 3.61808 20.425 2.87993 21.0001 2.03965C20.2303 2.37339 19.4019 2.59806 18.5329 2.69937C19.4199 2.18058 20.1009 1.35992 20.4221 0.381607C19.5921 0.861588 18.6728 1.21044 17.6941 1.39878C16.9101 0.584275 15.794 0.0748291 14.5581 0.0748291C12.1856 0.0748291 10.2617 1.95148 10.2617 4.26471C10.2617 4.59355 10.2993 4.9134 10.3731 5.22021C6.80241 5.04496 3.63622 3.37749 1.51723 0.841979C1.14827 1.46125 0.935522 2.1806 0.935522 2.94816C0.935522 4.402 1.69399 5.68545 2.84736 6.43628C2.14251 6.41504 1.48038 6.22632 0.901653 5.91219C0.901021 5.92977 0.901021 5.94691 0.901021 5.9657C0.901021 7.99512 2.38191 9.68952 4.34772 10.0735C3.98671 10.1695 3.60688 10.2209 3.21486 10.2209C2.93846 10.2209 2.66916 10.1944 2.40742 10.1454C2.95437 11.8104 4.54039 13.022 6.42075 13.0559C4.95033 14.18 3.09801 14.8496 1.08484 14.8496C0.738492 14.8496 0.396338 14.8304 0.0600586 14.7916C1.96143 15.9803 4.21913 16.6739 6.64568 16.6739" fill="#202949"/>
</svg>
